checking_status,duration,credit_history,purpose,credit_amount,savings_status,employment,installment_commitment,personal_status,other_parties,residence_since,property_magnitude,age,other_payment_plans,housing,existing_credits,job,num_dependents,own_telephone,foreign_worker,class,yak
no checking,24,existing paid,radio/tv,3430,500<=X<1000,>=7,3,male single,none,2,car,31,none,own,1,skilled,2,yes,yes,good,a
no checking,48,critical/other existing credit,education,6110,<100,1<=X<4,1,male single,none,3,no known property,31,bank,for free,1,skilled,1,yes,yes,good,a
no checking,12,existing paid,radio/tv,1262,<100,1<=X<4,3,male single,none,2,car,25,none,own,1,skilled,1,none,yes,good,a
no checking,12,critical/other existing credit,radio/tv,618,<100,>=7,4,male single,none,4,real estate,56,none,own,1,skilled,1,none,yes,good,a
no checking,24,existing paid,new car,1469,100<=X<500,>=7,4,male mar/wid,none,4,real estate,41,none,rent,1,unskilled resident,1,none,yes,good,a
<0,12,critical/other existing credit,new car,3499,<100,1<=X<4,3,female div/dep/mar,co applicant,2,real estate,29,none,own,2,skilled,1,none,yes,bad,a
no checking,15,existing paid,furniture/equipment,2708,<100,<1,2,male single,none,3,life insurance,27,bank,own,2,unskilled resident,1,none,yes,good,a
0<=X<200,11,existing paid,furniture/equipment,1577,>=1000,<1,4,female div/dep/mar,none,1,real estate,20,none,own,1,skilled,1,none,yes,good,a
<0,12,existing paid,new car,1168,<100,1<=X<4,4,male mar/wid,none,3,real estate,27,none,own,1,unskilled resident,1,none,yes,good,a
no checking,27,delayed previously,business,5117,<100,4<=X<7,3,male single,none,4,car,26,none,own,2,skilled,1,none,yes,good,a
<0,30,critical/other existing credit,used car,10623,<100,>=7,3,male single,none,4,no known property,38,none,for free,3,high qualif/self emp/mgmt,2,yes,yes,good,a
no checking,12,existing paid,used car,1413,>=1000,4<=X<7,3,male single,none,2,life insurance,55,none,own,1,skilled,1,none,no,good,a
<0,48,no credits/all paid,used car,4605,<100,>=7,3,male single,none,4,no known property,24,none,for free,2,skilled,2,none,yes,bad,a
no checking,12,critical/other existing credit,furniture/equipment,1402,500<=X<1000,4<=X<7,3,female div/dep/mar,none,4,car,37,none,rent,1,skilled,1,yes,yes,good,a
<0,12,existing paid,furniture/equipment,1262,no known savings,>=7,2,male div/sep,none,4,life insurance,49,none,own,1,unskilled resident,1,yes,yes,good,a
0<=X<200,48,existing paid,other,5381,no known savings,unemployed,3,male single,none,4,no known property,40,bank,for free,1,unemp/unskilled non res,1,yes,yes,good,a
no checking,18,critical/other existing credit,new car,1028,<100,1<=X<4,4,female div/dep/mar,none,3,real estate,36,none,own,2,skilled,1,none,yes,good,a
0<=X<200,9,existing paid,furniture/equipment,959,<100,1<=X<4,1,female div/dep/mar,none,2,car,29,none,own,1,skilled,1,none,no,bad,a
<0,12,existing paid,furniture/equipment,2578,<100,unemployed,3,female div/dep/mar,none,4,no known property,55,none,for free,1,high qualif/self emp/mgmt,1,none,yes,good,a
0<=X<200,18,critical/other existing credit,business,1887,no known savings,1<=X<4,4,male mar/wid,none,4,real estate,28,bank,own,2,skilled,1,none,yes,good,a
no checking,18,critical/other existing credit,radio/tv,1149,>=1000,1<=X<4,4,male single,none,3,real estate,46,none,own,2,skilled,1,none,yes,good,a
no checking,24,critical/other existing credit,repairs,2058,<100,1<=X<4,4,male div/sep,none,2,real estate,33,none,own,2,skilled,1,yes,yes,good,a
<0,36,existing paid,new car,1842,<100,<1,4,female div/dep/mar,none,4,car,34,none,own,1,skilled,1,yes,yes,bad,a
<0,36,existing paid,furniture/equipment,3620,<100,1<=X<4,1,male single,guarantor,2,life insurance,37,none,own,1,skilled,2,none,yes,good,a
<0,6,existing paid,education,448,<100,<1,4,female div/dep/mar,none,4,life insurance,23,none,own,1,skilled,1,none,yes,bad,a
no checking,24,existing paid,new car,2255,no known savings,<1,4,male single,none,1,life insurance,54,none,own,1,skilled,1,none,yes,good,a
<0,6,critical/other existing credit,new car,1361,<100,<1,2,male single,none,4,real estate,40,none,own,1,unskilled resident,2,none,no,good,a
no checking,4,critical/other existing credit,radio/tv,1503,<100,4<=X<7,2,male single,none,1,real estate,42,none,own,2,unskilled resident,2,none,yes,good,a
0<=X<200,12,existing paid,radio/tv,1534,<100,<1,1,male mar/wid,none,1,real estate,23,none,rent,1,skilled,1,none,yes,bad,a
<0,9,critical/other existing credit,new car,2799,<100,1<=X<4,2,male single,none,2,real estate,36,none,rent,2,skilled,2,none,yes,good,a
no checking,9,existing paid,furniture/equipment,1980,<100,<1,2,female div/dep/mar,co applicant,2,car,19,none,rent,2,skilled,1,none,yes,bad,a
no checking,15,existing paid,education,4623,100<=X<500,1<=X<4,3,male single,none,2,life insurance,40,none,own,1,high qualif/self emp/mgmt,1,yes,yes,bad,a
<0,48,existing paid,education,7476,<100,4<=X<7,4,male single,none,1,no known property,50,none,for free,1,high qualif/self emp/mgmt,1,yes,yes,good,a
>=200,10,critical/other existing credit,radio/tv,1347,no known savings,4<=X<7,4,male single,none,2,life insurance,27,none,own,2,skilled,1,yes,yes,good,a
0<=X<200,24,existing paid,radio/tv,2896,100<=X<500,<1,2,male single,none,1,car,29,none,own,1,skilled,1,none,yes,good,a
>=200,24,critical/other existing credit,radio/tv,3148,no known savings,1<=X<4,3,male single,none,2,car,31,none,own,2,skilled,1,yes,yes,good,a
0<=X<200,20,no credits/all paid,used car,6148,100<=X<500,>=7,3,male mar/wid,none,4,car,31,bank,own,2,skilled,1,yes,yes,good,a
0<=X<200,48,all paid,business,6416,<100,>=7,4,female div/dep/mar,none,3,no known property,59,none,rent,1,skilled,1,none,yes,bad,a
<0,12,existing paid,radio/tv,2214,<100,1<=X<4,4,male single,none,3,life insurance,24,none,own,1,unskilled resident,1,none,yes,good,a
no checking,6,critical/other existing credit,furniture/equipment,1221,no known savings,1<=X<4,1,male mar/wid,none,2,life insurance,27,none,own,2,skilled,1,none,yes,good,a
no checking,24,delayed previously,new car,717,no known savings,>=7,4,male mar/wid,none,4,car,54,none,own,2,skilled,1,yes,yes,good,a
no checking,12,existing paid,radio/tv,886,no known savings,1<=X<4,4,female div/dep/mar,none,2,car,21,none,own,1,skilled,1,none,yes,good,a
no checking,4,existing paid,furniture/equipment,601,<100,<1,1,female div/dep/mar,none,3,real estate,23,none,rent,1,unskilled resident,2,none,yes,good,a
no checking,12,critical/other existing credit,furniture/equipment,3331,<100,>=7,2,male single,none,4,life insurance,42,stores,own,1,skilled,1,none,yes,good,a
no checking,36,critical/other existing credit,new car,6614,<100,>=7,4,male single,none,4,car,34,none,own,2,high qualif/self emp/mgmt,1,yes,yes,good,a
<0,27,critical/other existing credit,business,2442,<100,>=7,4,male single,none,4,car,43,stores,own,4,high qualif/self emp/mgmt,2,yes,yes,good,a
0<=X<200,48,no credits/all paid,other,18424,<100,1<=X<4,1,female div/dep/mar,none,2,life insurance,32,bank,own,1,high qualif/self emp/mgmt,1,yes,no,bad,a
0<=X<200,60,existing paid,education,6288,<100,1<=X<4,4,male single,none,4,no known property,42,none,for free,1,skilled,1,none,yes,bad,a
>=200,30,critical/other existing credit,radio/tv,3656,no known savings,>=7,4,male single,none,4,life insurance,49,stores,own,2,unskilled resident,1,none,yes,good,a
0<=X<200,6,existing paid,radio/tv,753,<100,1<=X<4,2,female div/dep/mar,guarantor,3,real estate,64,none,own,1,skilled,1,none,yes,good,a
no checking,4,existing paid,furniture/equipment,601,<100,<1,1,female div/dep/mar,none,3,real estate,23,none,rent,1,unskilled resident,2,none,yes,good,a
no checking,4,existing paid,furniture/equipment,601,<100,<1,1,female div/dep/mar,none,3,real estate,23,none,rent,1,unskilled resident,2,none,yes,good,a
